0x00007fff62e8309e /usr/lib/dyld:__ZN13dyldbootstrap5startEPK12macho_headeriPPKclS2_Pm push rbp | rsp = 0x7fff5c97d130
                                 Write *(UINT64*)0x7fff5c97d130 = 0x7fff5c97d158
0x00007fff62e8309f /usr/lib/dyld:__ZN13dyldbootstrap5startEPK12macho_headeriPPKclS2_Pm+0x000000000001 mov rbp, rsp | rbp = 0x7fff5c97d130
0x00007fff62e830a2 /usr/lib/dyld:__ZN13dyldbootstrap5startEPK12macho_headeriPPKclS2_Pm+0x000000000004 push r15 | rsp = 0x7fff5c97d128
                                 Write *(UINT64*)0x7fff5c97d128 = 0
0x00007fff62e830a4 /usr/lib/dyld:__ZN13dyldbootstrap5startEPK12macho_headeriPPKclS2_Pm+0x000000000006 push r14 | rsp = 0x7fff5c97d120
                                 Write *(UINT64*)0x7fff5c97d120 = 0
0x00007fff62e830a6 /usr/lib/dyld:__ZN13dyldbootstrap5startEPK12macho_headeriPPKclS2_Pm+0x000000000008 push r13 | rsp = 0x7fff5c97d118
                                 Write *(UINT64*)0x7fff5c97d118 = 0
0x00007fff62e830a8 /usr/lib/dyld:__ZN13dyldbootstrap5startEPK12macho_headeriPPKclS2_Pm+0x00000000000a push r12 | rsp = 0x7fff5c97d110
                                 Write *(UINT64*)0x7fff5c97d110 = 0
0x00007fff62e830aa /usr/lib/dyld:__ZN13dyldbootstrap5startEPK12macho_headeriPPKclS2_Pm+0x00000000000c push rbx | rsp = 0x7fff5c97d108
                                 Write *(UINT64*)0x7fff5c97d108 = 0
0x00007fff62e830ab /usr/lib/dyld:__ZN13dyldbootstrap5startEPK12macho_headeriPPKclS2_Pm+0x00000000000d sub rsp, 0x48 | rsp = 0x7fff5c97d0c0, rflags = 0x206
0x00007fff62e830af /usr/lib/dyld:__ZN13dyldbootstrap5startEPK12macho_headeriPPKclS2_Pm+0x000000000011 mov qword ptr [rbp-0x68], r9
                                 Write *(UINT64*)0x7fff5c97d0c8 = 0x7fff5c97d150
0x00007fff62e830b3 /usr/lib/dyld:__ZN13dyldbootstrap5startEPK12macho_headeriPPKclS2_Pm+0x000000000015 mov qword ptr [rbp-0x50], r8
                                 Write *(UINT64*)0x7fff5c97d0e0 = 0x7fff62e82000
0x00007fff62e830b7 /usr/lib/dyld:__ZN13dyldbootstrap5startEPK12macho_headeriPPKclS2_Pm+0x000000000019 mov rbx, rcx | rbx = 0x3282000
0x00007fff62e830ba /usr/lib/dyld:__ZN13dyldbootstrap5startEPK12macho_headeriPPKclS2_Pm+0x00000000001c mov r12, rdx | r12 = 0x7fff5c97d168
0x00007fff62e830bd /usr/lib/dyld:__ZN13dyldbootstrap5startEPK12macho_headeriPPKclS2_Pm+0x00000000001f mov r14d, esi | r14 = 0x1
0x00007fff62e830c0 /usr/lib/dyld:__ZN13dyldbootstrap5startEPK12macho_headeriPPKclS2_Pm+0x000000000022 mov qword ptr [rbp-0x60], rdi
                                 Write *(UINT64*)0x7fff5c97d0d0 = 0x103282000
0x00007fff62e830c4 /usr/lib/dyld:__ZN13dyldbootstrap5startEPK12macho_headeriPPKclS2_Pm+0x000000000026 test rbx, rbx | rflags = 0x206
0x00007fff62e830c7 /usr/lib/dyld:__ZN13dyldbootstrap5startEPK12macho_headeriPPKclS2_Pm+0x000000000029 jz 0x7fff62e83229
                                 Read 0x7fff62e82000 = *(UINT64*)0x7fff5c97d0e0
0x00007fff62e830cd /usr/lib/dyld:__ZN13dyldbootstrap5startEPK12macho_headeriPPKclS2_Pm+0x00000000002f mov rax, qword ptr [rbp-0x50] | rax = 0x7fff62e82000
                                 Read 0xd = *(UINT32*)0x7fff62e82010
0x00007fff62e830d1 /usr/lib/dyld:__ZN13dyldbootstrap5startEPK12macho_headeriPPKclS2_Pm+0x000000000033 mov ecx, dword ptr [rax+0x10] | rcx = 0xd
0x00007fff62e830d4 /usr/lib/dyld:__ZN13dyldbootstrap5startEPK12macho_headeriPPKclS2_Pm+0x000000000036 mov dword ptr [rbp-0x48], ecx
                                 Write *(UINT32*)0x7fff5c97d0e8 = 0xd
0x00007fff62e830d7 /usr/lib/dyld:__ZN13dyldbootstrap5startEPK12macho_headeriPPKclS2_Pm+0x000000000039 lea rax, ptr [rax+0x20] | rax = 0x7fff62e82020
0x00007fff62e830db /usr/lib/dyld:__ZN13dyldbootstrap5startEPK12macho_headeriPPKclS2_Pm+0x00000000003d xor ecx, ecx | rcx = 0, rflags = 0x246
0x00007fff62e830dd /usr/lib/dyld:__ZN13dyldbootstrap5startEPK12macho_headeriPPKclS2_Pm+0x00000000003f xor r13d, r13d | r13 = 0, rflags = 0x246
0x00007fff62e830e0 /usr/lib/dyld:__ZN13dyldbootstrap5startEPK12macho_headeriPPKclS2_Pm+0x000000000042 xor edi, edi | rdi = 0, rflags = 0x246
0x00007fff62e830e2 /usr/lib/dyld:__ZN13dyldbootstrap5startEPK12macho_headeriPPKclS2_Pm+0x000000000044 mov qword ptr [rbp-0x40], rcx
                                 Write *(UINT64*)0x7fff5c97d0f0 = 0
0x00007fff62e830e6 /usr/lib/dyld:__ZN13dyldbootstrap5startEPK12macho_headeriPPKclS2_Pm+0x000000000048 mov qword ptr [rbp-0x38], 0x0
                                 Write *(UINT64*)0x7fff5c97d0f8 = 0
0x00007fff62e830ee /usr/lib/dyld:__ZN13dyldbootstrap5startEPK12macho_headeriPPKclS2_Pm+0x000000000050 mov r15, rax | r15 = 0x7fff62e82020
                                 Read 0x19 = *(UINT32*)0x7fff62e82020
0x00007fff62e830f1 /usr/lib/dyld:__ZN13dyldbootstrap5startEPK12macho_headeriPPKclS2_Pm+0x000000000053 mov eax, dword ptr [r15] | rax = 0x19
0x00007fff62e830f4 /usr/lib/dyld:__ZN13dyldbootstrap5startEPK12macho_headeriPPKclS2_Pm+0x000000000056 cmp eax, 0xb | rflags = 0x212
0x00007fff62e830f7 /usr/lib/dyld:__ZN13dyldbootstrap5startEPK12macho_headeriPPKclS2_Pm+0x000000000059 jz 0x7fff62e83185
0x00007fff62e830fd /usr/lib/dyld:__ZN13dyldbootstrap5startEPK12macho_headeriPPKclS2_Pm+0x00000000005f mov qword ptr [rbp-0x30], rdi
                                 Write *(UINT64*)0x7fff5c97d100 = 0
0x00007fff62e83101 /usr/lib/dyld:__ZN13dyldbootstrap5startEPK12macho_headeriPPKclS2_Pm+0x000000000063 cmp eax, 0x19 | rflags = 0x246
0x00007fff62e83104 /usr/lib/dyld:__ZN13dyldbootstrap5startEPK12macho_headeriPPKclS2_Pm+0x000000000066 jz 0x7fff62e8310c
0x00007fff62e8310c /usr/lib/dyld:__ZN13dyldbootstrap5startEPK12macho_headeriPPKclS2_Pm+0x00000000006e lea rdi, ptr [r15+0x8] | rdi = 0x7fff62e82028
0x00007fff62e83110 /usr/lib/dyld:__ZN13dyldbootstrap5startEPK12macho_headeriPPKclS2_Pm+0x000000000072 lea rsi, ptr [rip+0x250c0] | rsi = 0x7fff62ea81d7
        48 Call 0x00007fff62e83117 /usr/lib/dyld:__ZN13dyldbootstrap5startEPK12macho_headeriPPKclS2_Pm+0x000000000079 -> 0x00007fff62e9f470 /usr/lib/dyld:_strcmp(0x7fff62e82028, 0x7fff62ea81d7, ...)
0x00007fff62e83117 /usr/lib/dyld:__ZN13dyldbootstrap5startEPK12macho_headeriPPKclS2_Pm+0x000000000079 call 0x7fff62e9f470 | rsp = 0x7fff5c97d0b8
                                 Write *(UINT64*)0x7fff5c97d0b8 = 0x7fff62e8311c
0x00007fff62e9f470 /usr/lib/dyld:_strcmp mov eax, edi                            | rax = 0x62e82028
0x00007fff62e9f472 /usr/lib/dyld:_strcmp+0x000000000002 mov edx, esi             | rdx = 0x62ea81d7
0x00007fff62e9f474 /usr/lib/dyld:_strcmp+0x000000000004 and eax, 0xfff           | rax = 0x28, rflags = 0x206
0x00007fff62e9f479 /usr/lib/dyld:_strcmp+0x000000000009 and edx, 0xfff           | rdx = 0x1d7, rflags = 0x206
0x00007fff62e9f47f /usr/lib/dyld:_strcmp+0x00000000000f cmp edx, eax             | rflags = 0x216
0x00007fff62e9f481 /usr/lib/dyld:_strcmp+0x000000000011 cmovnbe eax, edx         | rax = 0x1d7
0x00007fff62e9f484 /usr/lib/dyld:_strcmp+0x000000000014 mov edx, 0x1000          | rdx = 0x1000
0x00007fff62e9f489 /usr/lib/dyld:_strcmp+0x000000000019 sub edx, eax             | rdx = 0xe29, rflags = 0x212
0x00007fff62e9f48b /usr/lib/dyld:_strcmp+0x00000000001b mov eax, edx             | rax = 0xe29
0x00007fff62e9f48d /usr/lib/dyld:_strcmp+0x00000000001d shr edx, 0x4             | rdx = 0xe2, rflags = 0x207
0x00007fff62e9f490 /usr/lib/dyld:_strcmp+0x000000000020 jnz 0x7fff62e9f4c0      
                                 Read 00000000_00000000_00005458_45545f5f = *(UINT128)0x7fff62e82028
0x00007fff62e9f4c0 /usr/lib/dyld:_strcmp+0x000000000050 movdqu xmm1, xmmword ptr [rdi]
                                 Read 636f6c_65720054_4944454b_4e494c5f_5f = *(UINT128)0x7fff62ea81d7
0x00007fff62e9f4c4 /usr/lib/dyld:_strcmp+0x000000000054 movdqu xmm2, xmmword ptr [rsi]
0x00007fff62e9f4c8 /usr/lib/dyld:_strcmp+0x000000000058 pxor xmm0, xmm0         
0x00007fff62e9f4cc /usr/lib/dyld:_strcmp+0x00000000005c add rdi, 0x10            | rdi = 0x7fff62e82038, rflags = 0x202
0x00007fff62e9f4d0 /usr/lib/dyld:_strcmp+0x000000000060 pcmpeqb xmm2, xmm1      
0x00007fff62e9f4d4 /usr/lib/dyld:_strcmp+0x000000000064 pcmpeqb xmm0, xmm1      
0x00007fff62e9f4d8 /usr/lib/dyld:_strcmp+0x000000000068 add rsi, 0x10            | rsi = 0x7fff62ea81e7, rflags = 0x206
0x00007fff62e9f4dc /usr/lib/dyld:_strcmp+0x00000000006c pmovmskb eax, xmm2       | rax = 0x403
0x00007fff62e9f4e0 /usr/lib/dyld:_strcmp+0x000000000070 pmovmskb ecx, xmm0       | rcx = 0xffc0
0x00007fff62e9f4e4 /usr/lib/dyld:_strcmp+0x000000000074 xor eax, 0xffff          | rax = 0xfbfc, rflags = 0x206
0x00007fff62e9f4e9 /usr/lib/dyld:_strcmp+0x000000000079 or eax, ecx              | rax = 0xfffc, rflags = 0x206
0x00007fff62e9f4eb /usr/lib/dyld:_strcmp+0x00000000007b jnz 0x7fff62e9f4f7      
0x00007fff62e9f4f7 /usr/lib/dyld:_strcmp+0x000000000087 bsf edx, eax             | rdx = 0x2, rflags = 0x202
0x00007fff62e9f4fa /usr/lib/dyld:_strcmp+0x00000000008a sub rdi, 0x10            | rdi = 0x7fff62e82028, rflags = 0x206
0x00007fff62e9f4fe /usr/lib/dyld:_strcmp+0x00000000008e sub rsi, 0x10            | rsi = 0x7fff62ea81d7, rflags = 0x206
                                 Read 0x54 = *(UINT8*)0x7fff62e8202a
0x00007fff62e9f502 /usr/lib/dyld:_strcmp+0x000000000092 movzx eax, byte ptr [rdi+rdx*1] | rax = 0x54
                                 Read 0x4c = *(UINT8*)0x7fff62ea81d9
0x00007fff62e9f506 /usr/lib/dyld:_strcmp+0x000000000096 movzx ecx, byte ptr [rsi+rdx*1] | rcx = 0x4c
0x00007fff62e9f50a /usr/lib/dyld:_strcmp+0x00000000009a sub eax, ecx             | rax = 0x8, rflags = 0x212
        78 Return 0x00007fff62e9f50c /usr/lib/dyld:_strcmp+0x00000000009c returns: 0x8
                                 Read 0x7fff62e8311c = *(UINT64*)0x7fff5c97d0b8
0x00007fff62e9f50c /usr/lib/dyld:_strcmp+0x00000000009c ret                      | rsp = 0x7fff5c97d0c0
0x00007fff62e8311c /usr/lib/dyld:__ZN13dyldbootstrap5startEPK12macho_headeriPPKclS2_Pm+0x00000000007e test eax, eax | rflags = 0x202
                                 Read 0 = *(UINT64*)0x7fff5c97d0f8
0x00007fff62e8311e /usr/lib/dyld:__ZN13dyldbootstrap5startEPK12macho_headeriPPKclS2_Pm+0x000000000080 mov rax, qword ptr [rbp-0x38] | rax = 0
0x00007fff62e83122 /usr/lib/dyld:__ZN13dyldbootstrap5startEPK12macho_headeriPPKclS2_Pm+0x000000000084 cmovz rax, r15 | rax = 0
0x00007fff62e83126 /usr/lib/dyld:__ZN13dyldbootstrap5startEPK12macho_headeriPPKclS2_Pm+0x000000000088 mov qword ptr [rbp-0x38], rax
                                 Write *(UINT64*)0x7fff5c97d0f8 = 0
                                 Read 0x7 = *(UINT32*)0x7fff62e82060
0x00007fff62e8312a /usr/lib/dyld:__ZN13dyldbootstrap5startEPK12macho_headeriPPKclS2_Pm+0x00000000008c mov eax, dword ptr [r15+0x40] | rax = 0x7
0x00007fff62e8312e /usr/lib/dyld:__ZN13dyldbootstrap5startEPK12macho_headeriPPKclS2_Pm+0x000000000090 lea rax, ptr [rax+rax*4] | rax = 0x23
0x00007fff62e83132 /usr/lib/dyld:__ZN13dyldbootstrap5startEPK12macho_headeriPPKclS2_Pm+0x000000000094 shl rax, 0x4 | rax = 0x230, rflags = 0x206
0x00007fff62e83136 /usr/lib/dyld:__ZN13dyldbootstrap5startEPK12macho_headeriPPKclS2_Pm+0x000000000098 lea rax, ptr [r15+rax*1+0x48] | rax = 0x7fff62e82298
0x00007fff62e8313b /usr/lib/dyld:__ZN13dyldbootstrap5startEPK12macho_headeriPPKclS2_Pm+0x00000000009d lea rcx, ptr [r15+0x48] | rcx = 0x7fff62e82068
0x00007fff62e8313f /usr/lib/dyld:__ZN13dyldbootstrap5startEPK12macho_headeriPPKclS2_Pm+0x0000000000a1 jmp 0x7fff62e83169
0x00007fff62e83169 /usr/lib/dyld:__ZN13dyldbootstrap5startEPK12macho_headeriPPKclS2_Pm+0x0000000000cb cmp rcx, rax | rflags = 0x283
0x00007fff62e8316c /usr/lib/dyld:__ZN13dyldbootstrap5startEPK12macho_headeriPPKclS2_Pm+0x0000000000ce jb 0x7fff62e83141
                                 Read 0 = *(UINT8*)0x7fff62e820a8
0x00007fff62e83141 /usr/lib/dyld:__ZN13dyldbootstrap5startEPK12macho_headeriPPKclS2_Pm+0x0000000000a3 cmp byte ptr [rcx+0x40], 0x6 | rflags = 0x297
0x00007fff62e83145 /usr/lib/dyld:__ZN13dyldbootstrap5startEPK12macho_headeriPPKclS2_Pm+0x0000000000a7 jnz 0x7fff62e83165
0x00007fff62e83165 /usr/lib/dyld:__ZN13dyldbootstrap5startEPK12macho_headeriPPKclS2_Pm+0x0000000000c7 add rcx, 0x50 | rcx = 0x7fff62e820b8, rflags = 0x206
0x00007fff62e83169 /usr/lib/dyld:__ZN13dyldbootstrap5startEPK12macho_headeriPPKclS2_Pm+0x0000000000cb cmp rcx, rax | rflags = 0x283
0x00007fff62e8316c /usr/lib/dyld:__ZN13dyldbootstrap5startEPK12macho_headeriPPKclS2_Pm+0x0000000000ce jb 0x7fff62e83141
                                 Read 0x2 = *(UINT8*)0x7fff62e820f8
0x00007fff62e83141 /usr/lib/dyld:__ZN13dyldbootstrap5startEPK12macho_headeriPPKclS2_Pm+0x0000000000a3 cmp byte ptr [rcx+0x40], 0x6 | rflags = 0x297
0x00007fff62e83145 /usr/lib/dyld:__ZN13dyldbootstrap5startEPK12macho_headeriPPKclS2_Pm+0x0000000000a7 jnz 0x7fff62e83165
0x00007fff62e83165 /usr/lib/dyld:__ZN13dyldbootstrap5startEPK12macho_headeriPPKclS2_Pm+0x0000000000c7 add rcx, 0x50 | rcx = 0x7fff62e82108, rflags = 0x202
0x00007fff62e83169 /usr/lib/dyld:__ZN13dyldbootstrap5startEPK12macho_headeriPPKclS2_Pm+0x0000000000cb cmp rcx, rax | rflags = 0x283
0x00007fff62e8316c /usr/lib/dyld:__ZN13dyldbootstrap5startEPK12macho_headeriPPKclS2_Pm+0x0000000000ce jb 0x7fff62e83141
                                 Read 0 = *(UINT8*)0x7fff62e82148
0x00007fff62e83141 /usr/lib/dyld:__ZN13dyldbootstrap5startEPK12macho_headeriPPKclS2_Pm+0x0000000000a3 cmp byte ptr [rcx+0x40], 0x6 | rflags = 0x297
0x00007fff62e83145 /usr/lib/dyld:__ZN13dyldbootstrap5startEPK12macho_headeriPPKclS2_Pm+0x0000000000a7 jnz 0x7fff62e83165
0x00007fff62e83165 /usr/lib/dyld:__ZN13dyldbootstrap5startEPK12macho_headeriPPKclS2_Pm+0x0000000000c7 add rcx, 0x50 | rcx = 0x7fff62e82158, rflags = 0x202
0x00007fff62e83169 /usr/lib/dyld:__ZN13dyldbootstrap5startEPK12macho_headeriPPKclS2_Pm+0x0000000000cb cmp rcx, rax | rflags = 0x287
0x00007fff62e8316c /usr/lib/dyld:__ZN13dyldbootstrap5startEPK12macho_headeriPPKclS2_Pm+0x0000000000ce jb 0x7fff62e83141
                                 Read 0 = *(UINT8*)0x7fff62e82198
0x00007fff62e83141 /usr/lib/dyld:__ZN13dyldbootstrap5startEPK12macho_headeriPPKclS2_Pm+0x0000000000a3 cmp byte ptr [rcx+0x40], 0x6 | rflags = 0x297
0x00007fff62e83145 /usr/lib/dyld:__ZN13dyldbootstrap5startEPK12macho_headeriPPKclS2_Pm+0x0000000000a7 jnz 0x7fff62e83165
0x00007fff62e83165 /usr/lib/dyld:__ZN13dyldbootstrap5startEPK12macho_headeriPPKclS2_Pm+0x0000000000c7 add rcx, 0x50 | rcx = 0x7fff62e821a8, rflags = 0x202
0x00007fff62e83169 /usr/lib/dyld:__ZN13dyldbootstrap5startEPK12macho_headeriPPKclS2_Pm+0x0000000000cb cmp rcx, rax | rflags = 0x283
0x00007fff62e8316c /usr/lib/dyld:__ZN13dyldbootstrap5startEPK12macho_headeriPPKclS2_Pm+0x0000000000ce jb 0x7fff62e83141
                                 Read 0 = *(UINT8*)0x7fff62e821e8
0x00007fff62e83141 /usr/lib/dyld:__ZN13dyldbootstrap5startEPK12macho_headeriPPKclS2_Pm+0x0000000000a3 cmp byte ptr [rcx+0x40], 0x6 | rflags = 0x297
0x00007fff62e83145 /usr/lib/dyld:__ZN13dyldbootstrap5startEPK12macho_headeriPPKclS2_Pm+0x0000000000a7 jnz 0x7fff62e83165
0x00007fff62e83165 /usr/lib/dyld:__ZN13dyldbootstrap5startEPK12macho_headeriPPKclS2_Pm+0x0000000000c7 add rcx, 0x50 | rcx = 0x7fff62e821f8, rflags = 0x202
0x00007fff62e83169 /usr/lib/dyld:__ZN13dyldbootstrap5startEPK12macho_headeriPPKclS2_Pm+0x0000000000cb cmp rcx, rax | rflags = 0x287
0x00007fff62e8316c /usr/lib/dyld:__ZN13dyldbootstrap5startEPK12macho_headeriPPKclS2_Pm+0x0000000000ce jb 0x7fff62e83141
                                 Read 0xf = *(UINT8*)0x7fff62e82238
0x00007fff62e83141 /usr/lib/dyld:__ZN13dyldbootstrap5startEPK12macho_headeriPPKclS2_Pm+0x0000000000a3 cmp byte ptr [rcx+0x40], 0x6 | rflags = 0x206
0x00007fff62e83145 /usr/lib/dyld:__ZN13dyldbootstrap5startEPK12macho_headeriPPKclS2_Pm+0x0000000000a7 jnz 0x7fff62e83165
0x00007fff62e83165 /usr/lib/dyld:__ZN13dyldbootstrap5startEPK12macho_headeriPPKclS2_Pm+0x0000000000c7 add rcx, 0x50 | rcx = 0x7fff62e82248, rflags = 0x206
0x00007fff62e83169 /usr/lib/dyld:__ZN13dyldbootstrap5startEPK12macho_headeriPPKclS2_Pm+0x0000000000cb cmp rcx, rax | rflags = 0x283
0x00007fff62e8316c /usr/lib/dyld:__ZN13dyldbootstrap5startEPK12macho_headeriPPKclS2_Pm+0x0000000000ce jb 0x7fff62e83141
                                 Read 0 = *(UINT8*)0x7fff62e82288
0x00007fff62e83141 /usr/lib/dyld:__ZN13dyldbootstrap5startEPK12macho_headeriPPKclS2_Pm+0x0000000000a3 cmp byte ptr [rcx+0x40], 0x6 | rflags = 0x297
0x00007fff62e83145 /usr/lib/dyld:__ZN13dyldbootstrap5startEPK12macho_headeriPPKclS2_Pm+0x0000000000a7 jnz 0x7fff62e83165
0x00007fff62e83165 /usr/lib/dyld:__ZN13dyldbootstrap5startEPK12macho_headeriPPKclS2_Pm+0x0000000000c7 add rcx, 0x50 | rcx = 0x7fff62e82298, rflags = 0x202
0x00007fff62e83169 /usr/lib/dyld:__ZN13dyldbootstrap5startEPK12macho_headeriPPKclS2_Pm+0x0000000000cb cmp rcx, rax | rflags = 0x246
0x00007fff62e8316c /usr/lib/dyld:__ZN13dyldbootstrap5startEPK12macho_headeriPPKclS2_Pm+0x0000000000ce jb 0x7fff62e83141
                                 Read 0 = *(UINT64*)0x7fff5c97d100
0x00007fff62e8316e /usr/lib/dyld:__ZN13dyldbootstrap5startEPK12macho_headeriPPKclS2_Pm+0x0000000000d0 mov rdi, qword ptr [rbp-0x30] | rdi = 0
0x00007fff62e83172 /usr/lib/dyld:__ZN13dyldbootstrap5startEPK12macho_headeriPPKclS2_Pm+0x0000000000d4 test rdi, rdi | rflags = 0x246
0x00007fff62e83175 /usr/lib/dyld:__ZN13dyldbootstrap5startEPK12macho_headeriPPKclS2_Pm+0x0000000000d7 jnz 0x7fff62e83189
0x00007fff62e83177 /usr/lib/dyld:__ZN13dyldbootstrap5startEPK12macho_headeriPPKclS2_Pm+0x0000000000d9 xor edi, edi | rdi = 0, rflags = 0x246
                                 Read 0x5 = *(UINT8*)0x7fff62e8205c
0x00007fff62e83179 /usr/lib/dyld:__ZN13dyldbootstrap5startEPK12macho_headeriPPKclS2_Pm+0x0000000000db test byte ptr [r15+0x3c], 0x2 | rflags = 0x246
0x00007fff62e8317e /usr/lib/dyld:__ZN13dyldbootstrap5startEPK12macho_headeriPPKclS2_Pm+0x0000000000e0 jz 0x7fff62e83189
                                 Read 0x278 = *(UINT32*)0x7fff62e82024
0x00007fff62e83189 /usr/lib/dyld:__ZN13dyldbootstrap5startEPK12macho_headeriPPKclS2_Pm+0x0000000000eb mov eax, dword ptr [r15+0x4] | rax = 0x278
0x00007fff62e8318d /usr/lib/dyld:__ZN13dyldbootstrap5startEPK12macho_headeriPPKclS2_Pm+0x0000000000ef add rax, r15 | rax = 0x7fff62e82298, rflags = 0x202
0x00007fff62e83190 /usr/lib/dyld:__ZN13dyldbootstrap5startEPK12macho_headeriPPKclS2_Pm+0x0000000000f2 inc r13d | r13 = 0x1, rflags = 0x202
                                 Read 0xd = *(UINT32*)0x7fff5c97d0e8
0x00007fff62e83193 /usr/lib/dyld:__ZN13dyldbootstrap5startEPK12macho_headeriPPKclS2_Pm+0x0000000000f5 cmp r13d, dword ptr [rbp-0x48] | rflags = 0x293
0x00007fff62e83197 /usr/lib/dyld:__ZN13dyldbootstrap5startEPK12macho_headeriPPKclS2_Pm+0x0000000000f9 jnz 0x7fff62e830ee
0x00007fff62e830ee /usr/lib/dyld:__ZN13dyldbootstrap5startEPK12macho_headeriPPKclS2_Pm+0x000000000050 mov r15, rax | r15 = 0x7fff62e82298
                                 Read 0x19 = *(UINT32*)0x7fff62e82298
0x00007fff62e830f1 /usr/lib/dyld:__ZN13dyldbootstrap5startEPK12macho_headeriPPKclS2_Pm+0x000000000053 mov eax, dword ptr [r15] | rax = 0x19
0x00007fff62e830f4 /usr/lib/dyld:__ZN13dyldbootstrap5startEPK12macho_headeriPPKclS2_Pm+0x000000000056 cmp eax, 0xb | rflags = 0x212
0x00007fff62e830f7 /usr/lib/dyld:__ZN13dyldbootstrap5startEPK12macho_headeriPPKclS2_Pm+0x000000000059 jz 0x7fff62e83185
0x00007fff62e830fd /usr/lib/dyld:__ZN13dyldbootstrap5startEPK12macho_headeriPPKclS2_Pm+0x00000000005f mov qword ptr [rbp-0x30], rdi
                                 Write *(UINT64*)0x7fff5c97d100 = 0
0x00007fff62e83101 /usr/lib/dyld:__ZN13dyldbootstrap5startEPK12macho_headeriPPKclS2_Pm+0x000000000063 cmp eax, 0x19 | rflags = 0x246
0x00007fff62e83104 /usr/lib/dyld:__ZN13dyldbootstrap5startEPK12macho_headeriPPKclS2_Pm+0x000000000066 jz 0x7fff62e8310c
0x00007fff62e8310c /usr/lib/dyld:__ZN13dyldbootstrap5startEPK12macho_headeriPPKclS2_Pm+0x00000000006e lea rdi, ptr [r15+0x8] | rdi = 0x7fff62e822a0
0x00007fff62e83110 /usr/lib/dyld:__ZN13dyldbootstrap5startEPK12macho_headeriPPKclS2_Pm+0x000000000072 lea rsi, ptr [rip+0x250c0] | rsi = 0x7fff62ea81d7
       146 Call 0x00007fff62e83117 /usr/lib/dyld:__ZN13dyldbootstrap5startEPK12macho_headeriPPKclS2_Pm+0x000000000079 -> 0x00007fff62e9f470 /usr/lib/dyld:_strcmp(0x7fff62e822a0, 0x7fff62ea81d7, ...)
0x00007fff62e83117 /usr/lib/dyld:__ZN13dyldbootstrap5startEPK12macho_headeriPPKclS2_Pm+0x000000000079 call 0x7fff62e9f470 | rsp = 0x7fff5c97d0b8
                                 Write *(UINT64*)0x7fff5c97d0b8 = 0x7fff62e8311c
0x00007fff62e9f470 /usr/lib/dyld:_strcmp mov eax, edi                            | rax = 0x62e822a0
0x00007fff62e9f472 /usr/lib/dyld:_strcmp+0x000000000002 mov edx, esi             | rdx = 0x62ea81d7
0x00007fff62e9f474 /usr/lib/dyld:_strcmp+0x000000000004 and eax, 0xfff           | rax = 0x2a0, rflags = 0x206
0x00007fff62e9f479 /usr/lib/dyld:_strcmp+0x000000000009 and edx, 0xfff           | rdx = 0x1d7, rflags = 0x206
0x00007fff62e9f47f /usr/lib/dyld:_strcmp+0x00000000000f cmp edx, eax             | rflags = 0x283
0x00007fff62e9f481 /usr/lib/dyld:_strcmp+0x000000000011 cmovnbe eax, edx         | rax = 0x2a0
0x00007fff62e9f484 /usr/lib/dyld:_strcmp+0x000000000014 mov edx, 0x1000          | rdx = 0x1000
0x00007fff62e9f489 /usr/lib/dyld:_strcmp+0x000000000019 sub edx, eax             | rdx = 0xd60, rflags = 0x206
0x00007fff62e9f48b /usr/lib/dyld:_strcmp+0x00000000001b mov eax, edx             | rax = 0xd60
0x00007fff62e9f48d /usr/lib/dyld:_strcmp+0x00000000001d shr edx, 0x4             | rdx = 0xd6, rflags = 0x202
0x00007fff62e9f490 /usr/lib/dyld:_strcmp+0x000000000020 jnz 0x7fff62e9f4c0      
                                 Read 00000000_00000000_00004154_41445f5f = *(UINT128)0x7fff62e822a0
0x00007fff62e9f4c0 /usr/lib/dyld:_strcmp+0x000000000050 movdqu xmm1, xmmword ptr [rdi]
                                 Read 636f6c_65720054_4944454b_4e494c5f_5f = *(UINT128)0x7fff62ea81d7
0x00007fff62e9f4c4 /usr/lib/dyld:_strcmp+0x000000000054 movdqu xmm2, xmmword ptr [rsi]
0x00007fff62e9f4c8 /usr/lib/dyld:_strcmp+0x000000000058 pxor xmm0, xmm0         
0x00007fff62e9f4cc /usr/lib/dyld:_strcmp+0x00000000005c add rdi, 0x10            | rdi = 0x7fff62e822b0, rflags = 0x202
0x00007fff62e9f4d0 /usr/lib/dyld:_strcmp+0x000000000060 pcmpeqb xmm2, xmm1      
0x00007fff62e9f4d4 /usr/lib/dyld:_strcmp+0x000000000064 pcmpeqb xmm0, xmm1      
0x00007fff62e9f4d8 /usr/lib/dyld:_strcmp+0x000000000068 add rsi, 0x10            | rsi = 0x7fff62ea81e7, rflags = 0x206
0x00007fff62e9f4dc /usr/lib/dyld:_strcmp+0x00000000006c pmovmskb eax, xmm2       | rax = 0x403
0x00007fff62e9f4e0 /usr/lib/dyld:_strcmp+0x000000000070 pmovmskb ecx, xmm0       | rcx = 0xffc0
0x00007fff62e9f4e4 /usr/lib/dyld:_strcmp+0x000000000074 xor eax, 0xffff          | rax = 0xfbfc, rflags = 0x206
0x00007fff62e9f4e9 /usr/lib/dyld:_strcmp+0x000000000079 or eax, ecx              | rax = 0xfffc, rflags = 0x206
0x00007fff62e9f4eb /usr/lib/dyld:_strcmp+0x00000000007b jnz 0x7fff62e9f4f7      
0x00007fff62e9f4f7 /usr/lib/dyld:_strcmp+0x000000000087 bsf edx, eax             | rdx = 0x2, rflags = 0x202
0x00007fff62e9f4fa /usr/lib/dyld:_strcmp+0x00000000008a sub rdi, 0x10            | rdi = 0x7fff62e822a0, rflags = 0x206
0x00007fff62e9f4fe /usr/lib/dyld:_strcmp+0x00000000008e sub rsi, 0x10            | rsi = 0x7fff62ea81d7, rflags = 0x206
                                 Read 0x44 = *(UINT8*)0x7fff62e822a2
0x00007fff62e9f502 /usr/lib/dyld:_strcmp+0x000000000092 movzx eax, byte ptr [rdi+rdx*1] | rax = 0x44
                                 Read 0x4c = *(UINT8*)0x7fff62ea81d9
0x00007fff62e9f506 /usr/lib/dyld:_strcmp+0x000000000096 movzx ecx, byte ptr [rsi+rdx*1] | rcx = 0x4c
0x00007fff62e9f50a /usr/lib/dyld:_strcmp+0x00000000009a sub eax, ecx             | rax = 0xfffffff8, rflags = 0x293
       176 Return 0x00007fff62e9f50c /usr/lib/dyld:_strcmp+0x00000000009c returns: 0xfffffff8
                                 Read 0x7fff62e8311c = *(UINT64*)0x7fff5c97d0b8
0x00007fff62e9f50c /usr/lib/dyld:_strcmp+0x00000000009c ret                      | rsp = 0x7fff5c97d0c0
0x00007fff62e8311c /usr/lib/dyld:__ZN13dyldbootstrap5startEPK12macho_headeriPPKclS2_Pm+0x00000000007e test eax, eax | rflags = 0x282
                                 Read 0 = *(UINT64*)0x7fff5c97d0f8
0x00007fff62e8311e /usr/lib/dyld:__ZN13dyldbootstrap5startEPK12macho_headeriPPKclS2_Pm+0x000000000080 mov rax, qword ptr [rbp-0x38] | rax = 0
0x00007fff62e83122 /usr/lib/dyld:__ZN13dyldbootstrap5startEPK12macho_headeriPPKclS2_Pm+0x000000000084 cmovz rax, r15 | rax = 0
0x00007fff62e83126 /usr/lib/dyld:__ZN13dyldbootstrap5startEPK12macho_headeriPPKclS2_Pm+0x000000000088 mov qword ptr [rbp-0x38], rax
                                 Write *(UINT64*)0x7fff5c97d0f8 = 0
                                 Read 0x8 = *(UINT32*)0x7fff62e822d8
0x00007fff62e8312a /usr/lib/dyld:__ZN13dyldbootstrap5startEPK12macho_headeriPPKclS2_Pm+0x00000000008c mov eax, dword ptr [r15+0x40] | rax = 0x8
0x00007fff62e8312e /usr/lib/dyld:__ZN13dyldbootstrap5startEPK12macho_headeriPPKclS2_Pm+0x000000000090 lea rax, ptr [rax+rax*4] | rax = 0x28
0x00007fff62e83132 /usr/lib/dyld:__ZN13dyldbootstrap5startEPK12macho_headeriPPKclS2_Pm+0x000000000094 shl rax, 0x4 | rax = 0x280, rflags = 0x202
0x00007fff62e83136 /usr/lib/dyld:__ZN13dyldbootstrap5startEPK12macho_headeriPPKclS2_Pm+0x000000000098 lea rax, ptr [r15+rax*1+0x48] | rax = 0x7fff62e82560
0x00007fff62e8313b /usr/lib/dyld:__ZN13dyldbootstrap5startEPK12macho_headeriPPKclS2_Pm+0x00000000009d lea rcx, ptr [r15+0x48] | rcx = 0x7fff62e822e0
0x00007fff62e8313f /usr/lib/dyld:__ZN13dyldbootstrap5startEPK12macho_headeriPPKclS2_Pm+0x0000000000a1 jmp 0x7fff62e83169
0x00007fff62e83169 /usr/lib/dyld:__ZN13dyldbootstrap5startEPK12macho_headeriPPKclS2_Pm+0x0000000000cb cmp rcx, rax | rflags = 0x283
0x00007fff62e8316c /usr/lib/dyld:__ZN13dyldbootstrap5startEPK12macho_headeriPPKclS2_Pm+0x0000000000ce jb 0x7fff62e83141
                                 Read 0x6 = *(UINT8*)0x7fff62e82320
0x00007fff62e83141 /usr/lib/dyld:__ZN13dyldbootstrap5startEPK12macho_headeriPPKclS2_Pm+0x0000000000a3 cmp byte ptr [rcx+0x40], 0x6 | rflags = 0x246
0x00007fff62e83145 /usr/lib/dyld:__ZN13dyldbootstrap5startEPK12macho_headeriPPKclS2_Pm+0x0000000000a7 jnz 0x7fff62e83165
                                 Read 0x48 = *(UINT64*)0x7fff62e82308
0x00007fff62e83147 /usr/lib/dyld:__ZN13dyldbootstrap5startEPK12macho_headeriPPKclS2_Pm+0x0000000000a9 mov rdx, qword ptr [rcx+0x28] | rdx = 0x48
0x00007fff62e8314b /usr/lib/dyld:__ZN13dyldbootstrap5startEPK12macho_headeriPPKclS2_Pm+0x0000000000ad shr rdx, 0x3 | rdx = 0x9, rflags = 0x206
0x00007fff62e8314f /usr/lib/dyld:__ZN13dyldbootstrap5startEPK12macho_headeriPPKclS2_Pm+0x0000000000b1 test edx, edx | rflags = 0x206
0x00007fff62e83151 /usr/lib/dyld:__ZN13dyldbootstrap5startEPK12macho_headeriPPKclS2_Pm+0x0000000000b3 jz 0x7fff62e83165
                                 Read 0x7fff5fc35000 = *(UINT64*)0x7fff62e82300
0x00007fff62e83153 /usr/lib/dyld:__ZN13dyldbootstrap5startEPK12macho_headeriPPKclS2_Pm+0x0000000000b5 mov rsi, qword ptr [rcx+0x20] | rsi = 0x7fff5fc35000
0x00007fff62e83157 /usr/lib/dyld:__ZN13dyldbootstrap5startEPK12macho_headeriPPKclS2_Pm+0x0000000000b9 add rsi, rbx | rsi = 0x7fff62eb7000, rflags = 0x206
                                 Read 0x7fff5fc36ad0 = *(UINT64*)0x7fff62eb7000
0x00007fff62e8315a /usr/lib/dyld:__ZN13dyldbootstrap5startEPK12macho_headeriPPKclS2_Pm+0x0000000000bc add qword ptr [rsi], rbx | rflags = 0x202
                                 Write *(UINT64*)0x7fff62eb7000 = 0x7fff62eb8ad0
0x00007fff62e8315d /usr/lib/dyld:__ZN13dyldbootstrap5startEPK12macho_headeriPPKclS2_Pm+0x0000000000bf add rsi, 0x8 | rsi = 0x7fff62eb7008, rflags = 0x202
0x00007fff62e83161 /usr/lib/dyld:__ZN13dyldbootstrap5startEPK12macho_headeriPPKclS2_Pm+0x0000000000c3 dec edx | rdx = 0x8, rflags = 0x202
0x00007fff62e83163 /usr/lib/dyld:__ZN13dyldbootstrap5startEPK12macho_headeriPPKclS2_Pm+0x0000000000c5 jnz 0x7fff62e8315a
                                 Read 0x7fff5fc36930 = *(UINT64*)0x7fff62eb7008
0x00007fff62e8315a /usr/lib/dyld:__ZN13dyldbootstrap5startEPK12macho_headeriPPKclS2_Pm+0x0000000000bc add qword ptr [rsi], rbx | rflags = 0x206
                                 Write *(UINT64*)0x7fff62eb7008 = 0x7fff62eb8930
0x00007fff62e8315d /usr/lib/dyld:__ZN13dyldbootstrap5startEPK12macho_headeriPPKclS2_Pm+0x0000000000bf add rsi, 0x8 | rsi = 0x7fff62eb7010, rflags = 0x212
0x00007fff62e83161 /usr/lib/dyld:__ZN13dyldbootstrap5startEPK12macho_headeriPPKclS2_Pm+0x0000000000c3 dec edx | rdx = 0x7, rflags = 0x202
0x00007fff62e83163 /usr/lib/dyld:__ZN13dyldbootstrap5startEPK12macho_headeriPPKclS2_Pm+0x0000000000c5 jnz 0x7fff62e8315a
                                 Read 0x7fff5fc00000 = *(UINT64*)0x7fff62eb7010
0x00007fff62e8315a /usr/lib/dyld:__ZN13dyldbootstrap5startEPK12macho_headeriPPKclS2_Pm+0x0000000000bc add qword ptr [rsi], rbx | rflags = 0x206
                                 Write *(UINT64*)0x7fff62eb7010 = 0x7fff62e82000
0x00007fff62e8315d /usr/lib/dyld:__ZN13dyldbootstrap5startEPK12macho_headeriPPKclS2_Pm+0x0000000000bf add rsi, 0x8 | rsi = 0x7fff62eb7018, rflags = 0x206
0x00007fff62e83161 /usr/lib/dyld:__ZN13dyldbootstrap5startEPK12macho_headeriPPKclS2_Pm+0x0000000000c3 dec edx | rdx = 0x6, rflags = 0x206
0x00007fff62e83163 /usr/lib/dyld:__ZN13dyldbootstrap5startEPK12macho_headeriPPKclS2_Pm+0x0000000000c5 jnz 0x7fff62e8315a
                                 Read 0x7fff5fc1b830 = *(UINT64*)0x7fff62eb7018
0x00007fff62e8315a /usr/lib/dyld:__ZN13dyldbootstrap5startEPK12macho_headeriPPKclS2_Pm+0x0000000000bc add qword ptr [rsi], rbx | rflags = 0x206
                                 Write *(UINT64*)0x7fff62eb7018 = 0x7fff62e9d830
0x00007fff62e8315d /usr/lib/dyld:__ZN13dyldbootstrap5startEPK12macho_headeriPPKclS2_Pm+0x0000000000bf add rsi, 0x8 | rsi = 0x7fff62eb7020, rflags = 0x212
0x00007fff62e83161 /usr/lib/dyld:__ZN13dyldbootstrap5startEPK12macho_headeriPPKclS2_Pm+0x0000000000c3 dec edx | rdx = 0x5, rflags = 0x206
0x00007fff62e83163 /usr/lib/dyld:__ZN13dyldbootstrap5startEPK12macho_headeriPPKclS2_Pm+0x0000000000c5 jnz 0x7fff62e8315a
                                 Read 0x7fff5fc00000 = *(UINT64*)0x7fff62eb7020
0x00007fff62e8315a /usr/lib/dyld:__ZN13dyldbootstrap5startEPK12macho_headeriPPKclS2_Pm+0x0000000000bc add qword ptr [rsi], rbx | rflags = 0x206
                                 Write *(UINT64*)0x7fff62eb7020 = 0x7fff62e82000
0x00007fff62e8315d /usr/lib/dyld:__ZN13dyldbootstrap5startEPK12macho_headeriPPKclS2_Pm+0x0000000000bf add rsi, 0x8 | rsi = 0x7fff62eb7028, rflags = 0x206
0x00007fff62e83161 /usr/lib/dyld:__ZN13dyldbootstrap5startEPK12macho_headeriPPKclS2_Pm+0x0000000000c3 dec edx | rdx = 0x4, rflags = 0x202
0x00007fff62e83163 /usr/lib/dyld:__ZN13dyldbootstrap5startEPK12macho_headeriPPKclS2_Pm+0x0000000000c5 jnz 0x7fff62e8315a
                                 Read 0x7fff5fc01008 = *(UINT64*)0x7fff62eb7028
0x00007fff62e8315a /usr/lib/dyld:__ZN13dyldbootstrap5startEPK12macho_headeriPPKclS2_Pm+0x0000000000bc add qword ptr [rsi], rbx | rflags = 0x202
                                 Write *(UINT64*)0x7fff62eb7028 = 0x7fff62e83008
0x00007fff62e8315d /usr/lib/dyld:__ZN13dyldbootstrap5startEPK12macho_headeriPPKclS2_Pm+0x0000000000bf add rsi, 0x8 | rsi = 0x7fff62eb7030, rflags = 0x216
0x00007fff62e83161 /usr/lib/dyld:__ZN13dyldbootstrap5startEPK12macho_headeriPPKclS2_Pm+0x0000000000c3 dec edx | rdx = 0x3, rflags = 0x206
0x00007fff62e83163 /usr/lib/dyld:__ZN13dyldbootstrap5startEPK12macho_headeriPPKclS2_Pm+0x0000000000c5 jnz 0x7fff62e8315a
                                 Read 0x7fff5fc01000 = *(UINT64*)0x7fff62eb7030
0x00007fff62e8315a /usr/lib/dyld:__ZN13dyldbootstrap5startEPK12macho_headeriPPKclS2_Pm+0x0000000000bc add qword ptr [rsi], rbx | rflags = 0x206
                                 Write *(UINT64*)0x7fff62eb7030 = 0x7fff62e83000
0x00007fff62e8315d /usr/lib/dyld:__ZN13dyldbootstrap5startEPK12macho_headeriPPKclS2_Pm+0x0000000000bf add rsi, 0x8 | rsi = 0x7fff62eb7038, rflags = 0x202
0x00007fff62e83161 /usr/lib/dyld:__ZN13dyldbootstrap5startEPK12macho_headeriPPKclS2_Pm+0x0000000000c3 dec edx | rdx = 0x2, rflags = 0x202
0x00007fff62e83163 /usr/lib/dyld:__ZN13dyldbootstrap5startEPK12macho_headeriPPKclS2_Pm+0x0000000000c5 jnz 0x7fff62e8315a
                                 Read 0x7fff5fc261cd = *(UINT64*)0x7fff62eb7038
0x00007fff62e8315a /usr/lib/dyld:__ZN13dyldbootstrap5startEPK12macho_headeriPPKclS2_Pm+0x0000000000bc add qword ptr [rsi], rbx | rflags = 0x202
                                 Write *(UINT64*)0x7fff62eb7038 = 0x7fff62ea81cd
0x00007fff62e8315d /usr/lib/dyld:__ZN13dyldbootstrap5startEPK12macho_headeriPPKclS2_Pm+0x0000000000bf add rsi, 0x8 | rsi = 0x7fff62eb7040, rflags = 0x212
0x00007fff62e83161 /usr/lib/dyld:__ZN13dyldbootstrap5startEPK12macho_headeriPPKclS2_Pm+0x0000000000c3 dec edx | rdx = 0x1, rflags = 0x202
0x00007fff62e83163 /usr/lib/dyld:__ZN13dyldbootstrap5startEPK12macho_headeriPPKclS2_Pm+0x0000000000c5 jnz 0x7fff62e8315a
                                 Read 0x7fff5fc01000 = *(UINT64*)0x7fff62eb7040
0x00007fff62e8315a /usr/lib/dyld:__ZN13dyldbootstrap5startEPK12macho_headeriPPKclS2_Pm+0x0000000000bc add qword ptr [rsi], rbx | rflags = 0x206
                                 Write *(UINT64*)0x7fff62eb7040 = 0x7fff62e83000
0x00007fff62e8315d /usr/lib/dyld:__ZN13dyldbootstrap5startEPK12macho_headeriPPKclS2_Pm+0x0000000000bf add rsi, 0x8 | rsi = 0x7fff62eb7048, rflags = 0x206
0x00007fff62e83161 /usr/lib/dyld:__ZN13dyldbootstrap5startEPK12macho_headeriPPKclS2_Pm+0x0000000000c3 dec edx | rdx = 0, rflags = 0x246
0x00007fff62e83163 /usr/lib/dyld:__ZN13dyldbootstrap5startEPK12macho_headeriPPKclS2_Pm+0x0000000000c5 jnz 0x7fff62e8315a
0x00007fff62e83165 /usr/lib/dyld:__ZN13dyldbootstrap5startEPK12macho_headeriPPKclS2_Pm+0x0000000000c7 add rcx, 0x50 | rcx = 0x7fff62e82330, rflags = 0x206
0x00007fff62e83169 /usr/lib/dyld:__ZN13dyldbootstrap5startEPK12macho_headeriPPKclS2_Pm+0x0000000000cb cmp rcx, rax | rflags = 0x283
0x00007fff62e8316c /usr/lib/dyld:__ZN13dyldbootstrap5startEPK12macho_headeriPPKclS2_Pm+0x0000000000ce jb 0x7fff62e83141
                                 Read 0x9 = *(UINT8*)0x7fff62e82370
0x00007fff62e83141 /usr/lib/dyld:__ZN13dyldbootstrap5startEPK12macho_headeriPPKclS2_Pm+0x0000000000a3 cmp byte ptr [rcx+0x40], 0x6 | rflags = 0x206
0x00007fff62e83145 /usr/lib/dyld:__ZN13dyldbootstrap5startEPK12macho_headeriPPKclS2_Pm+0x0000000000a7 jnz 0x7fff62e83165
0x00007fff62e83165 /usr/lib/dyld:__ZN13dyldbootstrap5startEPK12macho_headeriPPKclS2_Pm+0x0000000000c7 add rcx, 0x50 | rcx = 0x7fff62e82380, rflags = 0x202
0x00007fff62e83169 /usr/lib/dyld:__ZN13dyldbootstrap5startEPK12macho_headeriPPKclS2_Pm+0x0000000000cb cmp rcx, rax | rflags = 0x283
0x00007fff62e8316c /usr/lib/dyld:__ZN13dyldbootstrap5startEPK12macho_headeriPPKclS2_Pm+0x0000000000ce jb 0x7fff62e83141
                                 Read 0 = *(UINT8*)0x7fff62e823c0
0x00007fff62e83141 /usr/lib/dyld:__ZN13dyldbootstrap5startEPK12macho_headeriPPKclS2_Pm+0x0000000000a3 cmp byte ptr [rcx+0x40], 0x6 | rflags = 0x297
0x00007fff62e83145 /usr/lib/dyld:__ZN13dyldbootstrap5startEPK12macho_headeriPPKclS2_Pm+0x0000000000a7 jnz 0x7fff62e83165
0x00007fff62e83165 /usr/lib/dyld:__ZN13dyldbootstrap5startEPK12macho_headeriPPKclS2_Pm+0x0000000000c7 add rcx, 0x50 | rcx = 0x7fff62e823d0, rflags = 0x202
0x00007fff62e83169 /usr/lib/dyld:__ZN13dyldbootstrap5startEPK12macho_headeriPPKclS2_Pm+0x0000000000cb cmp rcx, rax | rflags = 0x283
0x00007fff62e8316c /usr/lib/dyld:__ZN13dyldbootstrap5startEPK12macho_headeriPPKclS2_Pm+0x0000000000ce jb 0x7fff62e83141
                                 Read 0 = *(UINT8*)0x7fff62e82410
0x00007fff62e83141 /usr/lib/dyld:__ZN13dyldbootstrap5startEPK12macho_headeriPPKclS2_Pm+0x0000000000a3 cmp byte ptr [rcx+0x40], 0x6 | rflags = 0x297
0x00007fff62e83145 /usr/lib/dyld:__ZN13dyldbootstrap5startEPK12macho_headeriPPKclS2_Pm+0x0000000000a7 jnz 0x7fff62e83165
0x00007fff62e83165 /usr/lib/dyld:__ZN13dyldbootstrap5startEPK12macho_headeriPPKclS2_Pm+0x0000000000c7 add rcx, 0x50 | rcx = 0x7fff62e82420, rflags = 0x202
0x00007fff62e83169 /usr/lib/dyld:__ZN13dyldbootstrap5startEPK12macho_headeriPPKclS2_Pm+0x0000000000cb cmp rcx, rax | rflags = 0x287
0x00007fff62e8316c /usr/lib/dyld:__ZN13dyldbootstrap5startEPK12macho_headeriPPKclS2_Pm+0x0000000000ce jb 0x7fff62e83141
                                 Read 0 = *(UINT8*)0x7fff62e82460
0x00007fff62e83141 /usr/lib/dyld:__ZN13dyldbootstrap5startEPK12macho_headeriPPKclS2_Pm+0x0000000000a3 cmp byte ptr [rcx+0x40], 0x6 | rflags = 0x297
0x00007fff62e83145 /usr/lib/dyld:__ZN13dyldbootstrap5startEPK12macho_headeriPPKclS2_Pm+0x0000000000a7 jnz 0x7fff62e83165
0x00007fff62e83165 /usr/lib/dyld:__ZN13dyldbootstrap5startEPK12macho_headeriPPKclS2_Pm+0x0000000000c7 add rcx, 0x50 | rcx = 0x7fff62e82470, rflags = 0x202
0x00007fff62e83169 /usr/lib/dyld:__ZN13dyldbootstrap5startEPK12macho_headeriPPKclS2_Pm+0x0000000000cb cmp rcx, rax | rflags = 0x283
0x00007fff62e8316c /usr/lib/dyld:__ZN13dyldbootstrap5startEPK12macho_headeriPPKclS2_Pm+0x0000000000ce jb 0x7fff62e83141
                                 Read 0 = *(UINT8*)0x7fff62e824b0
0x00007fff62e83141 /usr/lib/dyld:__ZN13dyldbootstrap5startEPK12macho_headeriPPKclS2_Pm+0x0000000000a3 cmp byte ptr [rcx+0x40], 0x6 | rflags = 0x297
0x00007fff62e83145 /usr/lib/dyld:__ZN13dyldbootstrap5startEPK12macho_headeriPPKclS2_Pm+0x0000000000a7 jnz 0x7fff62e83165
0x00007fff62e83165 /usr/lib/dyld:__ZN13dyldbootstrap5startEPK12macho_headeriPPKclS2_Pm+0x0000000000c7 add rcx, 0x50 | rcx = 0x7fff62e824c0, rflags = 0x206
0x00007fff62e83169 /usr/lib/dyld:__ZN13dyldbootstrap5startEPK12macho_headeriPPKclS2_Pm+0x0000000000cb cmp rcx, rax | rflags = 0x287
0x00007fff62e8316c /usr/lib/dyld:__ZN13dyldbootstrap5startEPK12macho_headeriPPKclS2_Pm+0x0000000000ce jb 0x7fff62e83141
                                 Read 0x1 = *(UINT8*)0x7fff62e82500
0x00007fff62e83141 /usr/lib/dyld:__ZN13dyldbootstrap5startEPK12macho_headeriPPKclS2_Pm+0x0000000000a3 cmp byte ptr [rcx+0x40], 0x6 | rflags = 0x293
0x00007fff62e83145 /usr/lib/dyld:__ZN13dyldbootstrap5startEPK12macho_headeriPPKclS2_Pm+0x0000000000a7 jnz 0x7fff62e83165
0x00007fff62e83165 /usr/lib/dyld:__ZN13dyldbootstrap5startEPK12macho_headeriPPKclS2_Pm+0x0000000000c7 add rcx, 0x50 | rcx = 0x7fff62e82510, rflags = 0x202
0x00007fff62e83169 /usr/lib/dyld:__ZN13dyldbootstrap5startEPK12macho_headeriPPKclS2_Pm+0x0000000000cb cmp rcx, rax | rflags = 0x283
0x00007fff62e8316c /usr/lib/dyld:__ZN13dyldbootstrap5startEPK12macho_headeriPPKclS2_Pm+0x0000000000ce jb 0x7fff62e83141
                                 Read 0x1 = *(UINT8*)0x7fff62e82550
0x00007fff62e83141 /usr/lib/dyld:__ZN13dyldbootstrap5startEPK12macho_headeriPPKclS2_Pm+0x0000000000a3 cmp byte ptr [rcx+0x40], 0x6 | rflags = 0x293
0x00007fff62e83145 /usr/lib/dyld:__ZN13dyldbootstrap5startEPK12macho_headeriPPKclS2_Pm+0x0000000000a7 jnz 0x7fff62e83165
0x00007fff62e83165 /usr/lib/dyld:__ZN13dyldbootstrap5startEPK12macho_headeriPPKclS2_Pm+0x0000000000c7 add rcx, 0x50 | rcx = 0x7fff62e82560, rflags = 0x206
0x00007fff62e83169 /usr/lib/dyld:__ZN13dyldbootstrap5startEPK12macho_headeriPPKclS2_Pm+0x0000000000cb cmp rcx, rax | rflags = 0x246
0x00007fff62e8316c /usr/lib/dyld:__ZN13dyldbootstrap5startEPK12macho_headeriPPKclS2_Pm+0x0000000000ce jb 0x7fff62e83141
                                 Read 0 = *(UINT64*)0x7fff5c97d100
0x00007fff62e8316e /usr/lib/dyld:__ZN13dyldbootstrap5startEPK12macho_headeriPPKclS2_Pm+0x0000000000d0 mov rdi, qword ptr [rbp-0x30] | rdi = 0
0x00007fff62e83172 /usr/lib/dyld:__ZN13dyldbootstrap5startEPK12macho_headeriPPKclS2_Pm+0x0000000000d4 test rdi, rdi | rflags = 0x246
0x00007fff62e83175 /usr/lib/dyld:__ZN13dyldbootstrap5startEPK12macho_headeriPPKclS2_Pm+0x0000000000d7 jnz 0x7fff62e83189
0x00007fff62e83177 /usr/lib/dyld:__ZN13dyldbootstrap5startEPK12macho_headeriPPKclS2_Pm+0x0000000000d9 xor edi, edi | rdi = 0, rflags = 0x246
                                 Read 0x3 = *(UINT8*)0x7fff62e822d4
0x00007fff62e83179 /usr/lib/dyld:__ZN13dyldbootstrap5startEPK12macho_headeriPPKclS2_Pm+0x0000000000db test byte ptr [r15+0x3c], 0x2 | rflags = 0x202
0x00007fff62e8317e /usr/lib/dyld:__ZN13dyldbootstrap5startEPK12macho_headeriPPKclS2_Pm+0x0000000000e0 jz 0x7fff62e83189
0x00007fff62e83180 /usr/lib/dyld:__ZN13dyldbootstrap5startEPK12macho_headeriPPKclS2_Pm+0x0000000000e2 mov rdi, r15 | rdi = 0x7fff62e82298
0x00007fff62e83183 /usr/lib/dyld:__ZN13dyldbootstrap5startEPK12macho_headeriPPKclS2_Pm+0x0000000000e5 jmp 0x7fff62e83189
                                 Read 0x2c8 = *(UINT32*)0x7fff62e8229c
0x00007fff62e83189 /usr/lib/dyld:__ZN13dyldbootstrap5startEPK12macho_headeriPPKclS2_Pm+0x0000000000eb mov eax, dword ptr [r15+0x4] | rax = 0x2c8
0x00007fff62e8318d /usr/lib/dyld:__ZN13dyldbootstrap5startEPK12macho_headeriPPKclS2_Pm+0x0000000000ef add rax, r15 | rax = 0x7fff62e82560, rflags = 0x216
0x00007fff62e83190 /usr/lib/dyld:__ZN13dyldbootstrap5startEPK12macho_headeriPPKclS2_Pm+0x0000000000f2 inc r13d | r13 = 0x2, rflags = 0x202
                                 Read 0xd = *(UINT32*)0x7fff5c97d0e8
0x00007fff62e83193 /usr/lib/dyld:__ZN13dyldbootstrap5startEPK12macho_headeriPPKclS2_Pm+0x0000000000f5 cmp r13d, dword ptr [rbp-0x48] | rflags = 0x297
0x00007fff62e83197 /usr/lib/dyld:__ZN13dyldbootstrap5startEPK12macho_headeriPPKclS2_Pm+0x0000000000f9 jnz 0x7fff62e830ee
0x00007fff62e830ee /usr/lib/dyld:__ZN13dyldbootstrap5startEPK12macho_headeriPPKclS2_Pm+0x000000000050 mov r15, rax | r15 = 0x7fff62e82560
                                 Read 0x19 = *(UINT32*)0x7fff62e82560
0x00007fff62e830f1 /usr/lib/dyld:__ZN13dyldbootstrap5startEPK12macho_headeriPPKclS2_Pm+0x000000000053 mov eax, dword ptr [r15] | rax = 0x19
0x00007fff62e830f4 /usr/lib/dyld:__ZN13dyldbootstrap5startEPK12macho_headeriPPKclS2_Pm+0x000000000056 cmp eax, 0xb | rflags = 0x212
0x00007fff62e830f7 /usr/lib/dyld:__ZN13dyldbootstrap5startEPK12macho_headeriPPKclS2_Pm+0x000000000059 jz 0x7fff62e83185
0x00007fff62e830fd /usr/lib/dyld:__ZN13dyldbootstrap5startEPK12macho_headeriPPKclS2_Pm+0x00000000005f mov qword ptr [rbp-0x30], rdi
                                 Write *(UINT64*)0x7fff5c97d100 = 0x7fff62e82298
0x00007fff62e83101 /usr/lib/dyld:__ZN13dyldbootstrap5startEPK12macho_headeriPPKclS2_Pm+0x000000000063 cmp eax, 0x19 | rflags = 0x246
0x00007fff62e83104 /usr/lib/dyld:__ZN13dyldbootstrap5startEPK12macho_headeriPPKclS2_Pm+0x000000000066 jz 0x7fff62e8310c
0x00007fff62e8310c /usr/lib/dyld:__ZN13dyldbootstrap5startEPK12macho_headeriPPKclS2_Pm+0x00000000006e lea rdi, ptr [r15+0x8] | rdi = 0x7fff62e82568
0x00007fff62e83110 /usr/lib/dyld:__ZN13dyldbootstrap5startEPK12macho_headeriPPKclS2_Pm+0x000000000072 lea rsi, ptr [rip+0x250c0] | rsi = 0x7fff62ea81d7
       293 Call 0x00007fff62e83117 /usr/lib/dyld:__ZN13dyldbootstrap5startEPK12macho_headeriPPKclS2_Pm+0x000000000079 -> 0x00007fff62e9f470 /usr/lib/dyld:_strcmp(0x7fff62e82568, 0x7fff62ea81d7, ...)
0x00007fff62e83117 /usr/lib/dyld:__ZN13dyldbootstrap5startEPK12macho_headeriPPKclS2_Pm+0x000000000079 call 0x7fff62e9f470 | rsp = 0x7fff5c97d0b8
                                 Write *(UINT64*)0x7fff5c97d0b8 = 0x7fff62e8311c
0x00007fff62e9f470 /usr/lib/dyld:_strcmp mov eax, edi                            | rax = 0x62e82568
0x00007fff62e9f472 /usr/lib/dyld:_strcmp+0x000000000002 mov edx, esi             | rdx = 0x62ea81d7
0x00007fff62e9f474 /usr/lib/dyld:_strcmp+0x000000000004 and eax, 0xfff           | rax = 0x568, rflags = 0x202
0x00007fff62e9f479 /usr/lib/dyld:_strcmp+0x000000000009 and edx, 0xfff           | rdx = 0x1d7, rflags = 0x206
0x00007fff62e9f47f /usr/lib/dyld:_strcmp+0x00000000000f cmp edx, eax             | rflags = 0x297
0x00007fff62e9f481 /usr/lib/dyld:_strcmp+0x000000000011 cmovnbe eax, edx         | rax = 0x568
0x00007fff62e9f484 /usr/lib/dyld:_strcmp+0x000000000014 mov edx, 0x1000          | rdx = 0x1000
0x00007fff62e9f489 /usr/lib/dyld:_strcmp+0x000000000019 sub edx, eax             | rdx = 0xa98, rflags = 0x212
0x00007fff62e9f48b /usr/lib/dyld:_strcmp+0x00000000001b mov eax, edx             | rax = 0xa98
0x00007fff62e9f48d /usr/lib/dyld:_strcmp+0x00000000001d shr edx, 0x4             | rdx = 0xa9, rflags = 0x207
0x00007fff62e9f490 /usr/lib/dyld:_strcmp+0x000000000020 jnz 0x7fff62e9f4c0      
                                 Read 00000000_00005449_44454b4e_494c5f5f = *(UINT128)0x7fff62e82568
0x00007fff62e9f4c0 /usr/lib/dyld:_strcmp+0x000000000050 movdqu xmm1, xmmword ptr [rdi]
                                 Read 636f6c_65720054_4944454b_4e494c5f_5f = *(UINT128)0x7fff62ea81d7
0x00007fff62e9f4c4 /usr/lib/dyld:_strcmp+0x000000000054 movdqu xmm2, xmmword ptr [rsi]
0x00007fff62e9f4c8 /usr/lib/dyld:_strcmp+0x000000000058 pxor xmm0, xmm0         
0x00007fff62e9f4cc /usr/lib/dyld:_strcmp+0x00000000005c add rdi, 0x10            | rdi = 0x7fff62e82578, rflags = 0x206
0x00007fff62e9f4d0 /usr/lib/dyld:_strcmp+0x000000000060 pcmpeqb xmm2, xmm1      
0x00007fff62e9f4d4 /usr/lib/dyld:_strcmp+0x000000000064 pcmpeqb xmm0, xmm1      
0x00007fff62e9f4d8 /usr/lib/dyld:_strcmp+0x000000000068 add rsi, 0x10            | rsi = 0x7fff62ea81e7, rflags = 0x206
0x00007fff62e9f4dc /usr/lib/dyld:_strcmp+0x00000000006c pmovmskb eax, xmm2       | rax = 0x7ff
0x00007fff62e9f4e0 /usr/lib/dyld:_strcmp+0x000000000070 pmovmskb ecx, xmm0       | rcx = 0xfc00
0x00007fff62e9f4e4 /usr/lib/dyld:_strcmp+0x000000000074 xor eax, 0xffff          | rax = 0xf800, rflags = 0x206
0x00007fff62e9f4e9 /usr/lib/dyld:_strcmp+0x000000000079 or eax, ecx              | rax = 0xfc00, rflags = 0x206
0x00007fff62e9f4eb /usr/lib/dyld:_strcmp+0x00000000007b jnz 0x7fff62e9f4f7      
0x00007fff62e9f4f7 /usr/lib/dyld:_strcmp+0x000000000087 bsf edx, eax             | rdx = 0xa, rflags = 0x206
0x00007fff62e9f4fa /usr/lib/dyld:_strcmp+0x00000000008a sub rdi, 0x10            | rdi = 0x7fff62e82568, rflags = 0x202
0x00007fff62e9f4fe /usr/lib/dyld:_strcmp+0x00000000008e sub rsi, 0x10            | rsi = 0x7fff62ea81d7, rflags = 0x206
                                 Read 0 = *(UINT8*)0x7fff62e82572
0x00007fff62e9f502 /usr/lib/dyld:_strcmp+0x000000000092 movzx eax, byte ptr [rdi+rdx*1] | rax = 0
                                 Read 0 = *(UINT8*)0x7fff62ea81e1
0x00007fff62e9f506 /usr/lib/dyld:_strcmp+0x000000000096 movzx ecx, byte ptr [rsi+rdx*1] | rcx = 0
0x00007fff62e9f50a /usr/lib/dyld:_strcmp+0x00000000009a sub eax, ecx             | rax = 0, rflags = 0x246
